module gitlab.com/19seanak19/go-simple-migrate

go 1.19

replace gitlab.com/19seanak19/go-simple-migrate/internal => ./internal

replace gitlab.com/19seanak19/go-simple-migrate/pkg => ./pkg

require (
	github.com/jackc/pgx/v4 v4.17.0
	github.com/mattn/go-sqlite3 v1.14.15
	github.com/sirupsen/logrus v1.9.0
	github.com/stretchr/testify v1.8.0
)

require (
	github.com/davecgh/go-spew v1.1.1 // indirect
	github.com/jackc/chunkreader/v2 v2.0.1 // indirect
	github.com/jackc/pgconn v1.13.0 // indirect
	github.com/jackc/pgio v1.0.0 // indirect
	github.com/jackc/pgpassfile v1.0.0 // indirect
	github.com/jackc/pgproto3/v2 v2.3.1 // indirect
	github.com/jackc/pgservicefile v0.0.0-20200714003250-2b9c44734f2b // indirect
	github.com/jackc/pgtype v1.12.0 // indirect
	github.com/pmezard/go-difflib v1.0.0 // indirect
	golang.org/x/crypto v0.0.0-20220722155217-630584e8d5aa // indirect
	golang.org/x/sys v0.0.0-20220715151400-c0bba94af5f8 // indirect
	golang.org/x/text v0.3.7 // indirect
	gopkg.in/yaml.v3 v3.0.1 // indirect
)
